<?xml version="1.0" encoding="UTF-8" standalone="no"?>
<!-- Created with Inkscape (http://www.inkscape.org/) -->

<svg
   xmlns:dc="http://purl.org/dc/elements/1.1/"
   xmlns:cc="http://creativecommons.org/ns#"
   xmlns:rdf="http://www.w3.org/1999/02/22-rdf-syntax-ns#"
   xmlns:svg="http://www.w3.org/2000/svg"
   xmlns="http://www.w3.org/2000/svg"
   xmlns:xlink="http://www.w3.org/1999/xlink"
   xmlns:sodipodi="http://sodipodi.sourceforge.net/DTD/sodipodi-0.dtd"
   xmlns:inkscape="http://www.inkscape.org/namespaces/inkscape"
   width="192.74931mm"
   height="192.74931mm"
   viewBox="0 0 682.96999 682.97"
   id="svg178336"
   version="1.1"
   inkscape:version="0.92.4 (5da689c313, 2019-01-14)"
   sodipodi:docname="antifa-tech-keys.svg">
  <defs
     id="defs178338">
    <filter
       style="color-interpolation-filters:sRGB"
       inkscape:label="Lightness-Contrast"
       id="filter179732">
      <feColorMatrix
         values="1 0 0 0.15 -0 0 1 0 0.15 -0 0 0 1 0.15 -0 0 0 0 1 0"
         id="feColorMatrix179734" />
    </filter>
    <linearGradient
       id="g1">
      <stop
         offset="0"
         style="stop-color:#f4f602;stop-opacity:1"
         id="s1" />
      <stop
         offset="0.51999998"
         style="stop-color:#c4bf34;stop-opacity:1"
         id="s2" />
      <stop
         offset="0.67000002"
         style="stop-color:#c4bf34;stop-opacity:1"
         id="s3" />
      <stop
         offset="1"
         style="stop-color:#f4f602;stop-opacity:1"
         id="s4" />
    </linearGradient>
    <linearGradient
       id="g2">
      <stop
         offset="0"
         style="stop-color:#783000;stop-opacity:1"
         id="s5" />
      <stop
         offset="0.75"
         style="stop-color:#000000;stop-opacity:1"
         id="s6" />
      <stop
         offset="1"
         style="stop-color:#642800;stop-opacity:1"
         id="s7" />
    </linearGradient>
    <linearGradient
       id="g3">
      <stop
         offset="0"
         style="stop-color:#f4f602;stop-opacity:1"
         id="s8" />
      <stop
         offset="1"
         style="stop-color:#c4bf34;stop-opacity:1"
         id="s9" />
    </linearGradient>
    <linearGradient
       gradientUnits="userSpaceOnUse"
       xlink:href="#g3"
       id="g4"
       y2="77.99485"
       x2="117.85719"
       y1="87.787521"
       x1="48.975147" />
    <linearGradient
       gradientUnits="userSpaceOnUse"
       xlink:href="#g1"
       id="g5"
       y2="94.320732"
       x2="221.6933"
       y1="98.310341"
       x1="116.57422" />
    <linearGradient
       gradientUnits="userSpaceOnUse"
       xlink:href="#g2"
       id="g6"
       y2="144.07323"
       x2="4.318048"
       y1="144.07323"
       x1="-3.7498047" />
    <radialGradient
       gradientTransform="matrix(1,0,0,1.1743401,0,-17.13943)"
       gradientUnits="userSpaceOnUse"
       xlink:href="#g3"
       id="r1"
       fy="98.310333"
       fx="175.42162"
       r="72.10807"
       cy="98.310333"
       cx="175.42162" />
    <radialGradient
       gradientTransform="matrix(1,0,0,1.430985,0,-36.345183)"
       gradientUnits="userSpaceOnUse"
       xlink:href="#g3"
       id="r2"
       fy="84.330505"
       fx="67.081421"
       r="58.420074"
       cy="84.330505"
       cx="67.081421" />
    <radialGradient
       gradientTransform="matrix(1,0,0,1.430985,0,-36.345183)"
       gradientUnits="userSpaceOnUse"
       xlink:href="#g3"
       id="radialGradient2404"
       fy="84.330505"
       fx="67.081421"
       r="58.420074"
       cy="84.330505"
       cx="67.081421" />
    <radialGradient
       gradientTransform="matrix(1,0,0,1.1743401,-0.5111884,-17.874422)"
       gradientUnits="userSpaceOnUse"
       xlink:href="#g3"
       id="radialGradient2409"
       fy="98.310333"
       fx="175.42162"
       r="72.10807"
       cy="98.310333"
       cx="175.42162" />
  </defs>
  <sodipodi:namedview
     id="base"
     pagecolor="#ffffff"
     bordercolor="#666666"
     borderopacity="1.0"
     inkscape:pageopacity="0.0"
     inkscape:pageshadow="2"
     inkscape:zoom="0.25"
     inkscape:cx="-296.39696"
     inkscape:cy="180.40147"
     inkscape:document-units="px"
     inkscape:current-layer="layer1-0"
     showgrid="false"
     fit-margin-top="0"
     fit-margin-left="0"
     fit-margin-right="0"
     fit-margin-bottom="0"
     inkscape:window-width="1366"
     inkscape:window-height="741"
     inkscape:window-x="0"
     inkscape:window-y="27"
     inkscape:window-maximized="1"
     objecttolerance="1"
     guidetolerance="1" />
  <metadata
     id="metadata178341">
    <rdf:RDF>
      <cc:Work
         rdf:about="">
        <dc:format>image/svg+xml</dc:format>
        <dc:type
           rdf:resource="http://purl.org/dc/dcmitype/StillImage" />
        <dc:title></dc:title>
      </cc:Work>
    </rdf:RDF>
  </metadata>
  <g
     inkscape:label="Layer 1"
     inkscape:groupmode="layer"
     id="layer1"
     transform="translate(-426.16961,695.65987)">
    <g
       transform="matrix(0,1.1240242,-1.1240242,0,2701.4628,-82.628264)"
       id="layer1-0"
       inkscape:label="Layer 1">
      <circle
         r="234.15598"
         cy="-241.5843"
         cx="-1720.4329"
         id="use5397"
         style="opacity:1;fill:#ffffff;fill-opacity:1;stroke:none;stroke-width:2.86592317;stroke-linecap:round;stroke-linejoin:round;stroke-miterlimit:4;stroke-dasharray:none;stroke-dashoffset:0;stroke-opacity:1"
         transform="rotate(-90)" />
      <g
         transform="matrix(-0.38294006,-0.77576823,0.77576823,-0.38294006,-905.41336,1353.2562)"
         id="g5711"
         style="fill:#ffff00;fill-opacity:1" />
      <g
         transform="matrix(-1.2795957,-2.5922325,2.5922325,-1.2795957,-2298.7599,-940.45213)"
         id="g5771">
        <g
           transform="translate(-78.115877,-105.44895)"
           id="g5719"
           style="fill:#ff0000;fill-opacity:1">
          <path
             sodipodi:nodetypes="zsccccczz"
             inkscape:connector-curvature="0"
             id="path5713"
             d="m -1363.0539,36.706588 c 1.7668,-0.36805 15.6795,-0.33458 21.9184,1.112894 3.2666,0.757884 5.6251,2.726297 7.4014,4.807448 2.852,4.122967 10.3351,14.265256 11.4434,18.07049 1.1082,3.805225 0.6744,4.134093 -1.5004,4.689628 -2.1748,0.55553 -20.2478,0.865669 -23.4092,0.119656 -3.1614,-0.746025 -6.0989,-0.295475 -8.0805,-4.531775 -2.7656,-4.036013 -9.1053,-17.73141 -9.2762,-20.123113 -0.1709,-2.391702 -0.2637,-3.777178 1.5031,-4.145228 z"
             style="fill:#ff0000;fill-opacity:1;stroke:none;stroke-width:0.96407646px;stroke-linecap:butt;stroke-linejoin:miter;stroke-opacity:1" />
          <path
             sodipodi:nodetypes="ccccccccc"
             inkscape:connector-curvature="0"
             id="path5715"
             d="m -1351.8982,68.437504 c 9.7517,1.760326 19.2905,1.56156 28.7198,0.353648 0.8908,-0.03297 1.1645,0.461648 1.6209,0.800127 0.027,3.825538 -1.8268,8.288811 -3.2462,12.604739 -0.231,0.710787 -0.6007,1.254814 -1.3405,1.354207 -12.1312,2.636679 -23.397,2.249232 -34.8641,2.564955 -0.3974,-0.229825 -0.7598,-0.479932 -0.6595,-0.997522 5.0139,-11.625145 6.7999,-14.477008 8.1175,-16.05578 0.3583,-0.461984 0.8567,-0.739109 1.6521,-0.624374 z"
             style="fill:#ff0000;fill-opacity:1;stroke:none;stroke-width:0.96407646px;stroke-linecap:butt;stroke-linejoin:miter;stroke-opacity:1" />
          <path
             sodipodi:nodetypes="ccccccccc"
             inkscape:connector-curvature="0"
             id="path5717"
             d="m -1367.708,42.147291 c 2.7648,9.303904 6.2062,16.076031 9.5907,23.061347 0.2514,0.536473 -0.1032,0.805852 -0.239,1.171704 l -7.9555,14.603736 c -0.4868,0.902874 -0.7452,0.714928 -0.9513,0.277071 l -9.1452,-26.438984 c -0.1723,-0.500601 0.094,-0.906081 0.3744,-1.308504 2.381,-3.924057 4.7362,-7.924353 7.4022,-11.007775 0.4549,-0.581303 0.7593,-0.689818 0.9237,-0.358595 z"
             style="fill:#ff0000;fill-opacity:1;stroke:none;stroke-width:0.96407646px;stroke-linecap:butt;stroke-linejoin:miter;stroke-opacity:1" />
        </g>
        <path
           style="fill:#ffffff;fill-opacity:1;stroke:none;stroke-width:0.99793595px;stroke-linecap:butt;stroke-linejoin:miter;stroke-opacity:1"
           d="m -1406.7607,-38.850565 c -0.693,-0.31348 -1.4399,-0.562654 -2.2476,-0.72696 -6.1708,-1.255169 -20.0857,-0.624186 -21.8705,-0.144441 -2.8384,1.558641 -4.2405,4.511634 -5.8566,6.493177 -2.8142,3.437937 -5.3605,7.845339 -7.9299,12.172108 -0.2997,0.445475 -0.5859,0.893002 -0.4375,1.42218 l 7.8803,27.945977 c 0.7624,2.612733 2.0226,4.891996 6.0242,4.911381 11.4844,-0.888133 22.7336,-1.011451 34.9934,-4.4230718 0.7447,-0.1421318 1.1403,-0.743885 1.4055,-1.5180249 1.6263,-4.7014214 3.6948,-9.5822355 3.851,-13.6879212 0.1961,-1.9295714 0.1845,-4.5609601 0.1414,-6.0658291 -0.043,-1.50485 -0.4075,-3.25823 -0.4488,-3.447186 -0.9263,-4.032097 -7.9247,-14.560928 -10.5798,-18.850633 -1.2579,-1.611888 -2.8464,-3.140175 -4.9249,-4.080756 z"
           id="path5729"
           inkscape:connector-curvature="0"
           sodipodi:nodetypes="ccccccccccczccc" />
        <g
           transform="translate(-65.425954,-74.994287)"
           id="g5727"
           style="fill:#000000">
          <path
             sodipodi:nodetypes="zsccccczz"
             inkscape:connector-curvature="0"
             id="path5721"
             d="m -1363.0539,36.706588 c 1.7668,-0.36805 15.6795,-0.33458 21.9184,1.112894 3.2666,0.757884 5.6251,2.726297 7.4014,4.807448 2.852,4.122967 10.3351,14.265256 11.4434,18.07049 1.1082,3.805225 0.6744,4.134093 -1.5004,4.689628 -2.1748,0.55553 -20.2478,0.865669 -23.4092,0.119656 -3.1614,-0.746025 -6.0989,-0.295475 -8.0805,-4.531775 -2.7656,-4.036013 -9.1053,-17.73141 -9.2762,-20.123113 -0.1709,-2.391702 -0.2637,-3.777178 1.5031,-4.145228 z"
             style="fill:#000000;stroke:none;stroke-width:0.96407646px;stroke-linecap:butt;stroke-linejoin:miter;stroke-opacity:1" />
          <path
             sodipodi:nodetypes="ccccccccc"
             inkscape:connector-curvature="0"
             id="path5723"
             d="m -1351.8982,68.437504 c 9.7517,1.760326 19.2905,1.56156 28.7198,0.353648 0.8908,-0.03297 1.1645,0.461648 1.6209,0.800127 0.027,3.825538 -1.8268,8.288811 -3.2462,12.604739 -0.231,0.710787 -0.6007,1.254814 -1.3405,1.354207 -12.1312,2.636679 -23.397,2.249232 -34.8641,2.564955 -0.3974,-0.229825 -0.7598,-0.479932 -0.6595,-0.997522 5.0139,-11.625145 6.7999,-14.477008 8.1175,-16.05578 0.3583,-0.461984 0.8567,-0.739109 1.6521,-0.624374 z"
             style="fill:#000000;stroke:none;stroke-width:0.96407646px;stroke-linecap:butt;stroke-linejoin:miter;stroke-opacity:1" />
          <path
             sodipodi:nodetypes="ccccccccc"
             inkscape:connector-curvature="0"
             id="path5725"
             d="m -1367.708,42.147291 c 2.7648,9.303904 6.2062,16.076031 9.5907,23.061347 0.2514,0.536473 -0.1032,0.805852 -0.239,1.171704 l -7.9555,14.603736 c -0.4868,0.902874 -0.7452,0.714928 -0.9513,0.277071 l -9.1452,-26.438984 c -0.1723,-0.500601 0.094,-0.906081 0.3744,-1.308504 2.381,-3.924057 4.7362,-7.924353 7.4022,-11.007775 0.4549,-0.581303 0.7593,-0.689818 0.9237,-0.358595 z"
             style="fill:#000000;stroke:none;stroke-width:0.96407646px;stroke-linecap:butt;stroke-linejoin:miter;stroke-opacity:1" />
        </g>
      </g>
      <g
         transform="matrix(-2.1469597,-4.3493571,4.3493571,-2.1469597,-3448.3014,-3800.7027)"
         id="g5760">
        <g
           style="fill:#ff0000;fill-opacity:1"
           id="g5739"
           transform="translate(52.169626,30.129669)">
          <path
             style="fill:#ff0000;fill-opacity:1;stroke:none;stroke-width:0.96407646px;stroke-linecap:butt;stroke-linejoin:miter;stroke-opacity:1"
             d="m -1363.0539,36.706588 c 1.7668,-0.36805 15.6795,-0.33458 21.9184,1.112894 3.2666,0.757884 5.6251,2.726297 7.4014,4.807448 2.852,4.122967 10.3351,14.265256 11.4434,18.07049 1.1082,3.805225 0.6744,4.134093 -1.5004,4.689628 -2.1748,0.55553 -20.2478,0.865669 -23.4092,0.119656 -3.1614,-0.746025 -6.0989,-0.295475 -8.0805,-4.531775 -2.7656,-4.036013 -9.1053,-17.73141 -9.2762,-20.123113 -0.1709,-2.391702 -0.2637,-3.777178 1.5031,-4.145228 z"
             id="path5733"
             inkscape:connector-curvature="0"
             sodipodi:nodetypes="zsccccczz" />
          <path
             style="fill:#ff0000;fill-opacity:1;stroke:none;stroke-width:0.96407646px;stroke-linecap:butt;stroke-linejoin:miter;stroke-opacity:1"
             d="m -1351.8982,68.437504 c 9.7517,1.760326 19.2905,1.56156 28.7198,0.353648 0.8908,-0.03297 1.1645,0.461648 1.6209,0.800127 0.027,3.825538 -1.8268,8.288811 -3.2462,12.604739 -0.231,0.710787 -0.6007,1.254814 -1.3405,1.354207 -12.1312,2.636679 -23.397,2.249232 -34.8641,2.564955 -0.3974,-0.229825 -0.7598,-0.479932 -0.6595,-0.997522 5.0139,-11.625145 6.7999,-14.477008 8.1175,-16.05578 0.3583,-0.461984 0.8567,-0.739109 1.6521,-0.624374 z"
             id="path5735"
             inkscape:connector-curvature="0"
             sodipodi:nodetypes="ccccccccc" />
          <path
             style="fill:#ff0000;fill-opacity:1;stroke:none;stroke-width:0.96407646px;stroke-linecap:butt;stroke-linejoin:miter;stroke-opacity:1"
             d="m -1367.708,42.147291 c 2.7648,9.303904 6.2062,16.076031 9.5907,23.061347 0.2514,0.536473 -0.1032,0.805852 -0.239,1.171704 l -7.9555,14.603736 c -0.4868,0.902874 -0.7452,0.714928 -0.9513,0.277071 l -9.1452,-26.438984 c -0.1723,-0.500601 0.094,-0.906081 0.3744,-1.308504 2.381,-3.924057 4.7362,-7.924353 7.4022,-11.007775 0.4549,-0.581303 0.7593,-0.689818 0.9237,-0.358595 z"
             id="path5737"
             inkscape:connector-curvature="0"
             sodipodi:nodetypes="ccccccccc" />
        </g>
        <path
           sodipodi:nodetypes="ccccccccccczccc"
           inkscape:connector-curvature="0"
           id="path5741"
           d="m -1321.564,66.100241 c -0.693,-0.31348 -1.4399,-0.562654 -2.2476,-0.72696 -6.1708,-1.255169 -20.0857,-0.624186 -21.8705,-0.144441 -2.8384,1.558641 -4.2405,4.511634 -5.8566,6.493177 -2.8142,3.437937 -5.3605,7.845339 -7.9299,12.172108 -0.2997,0.445475 -0.5859,0.893002 -0.4375,1.42218 l 7.8803,27.945975 c 0.7624,2.61273 2.0226,4.89199 6.0242,4.91138 11.4844,-0.88814 22.7336,-1.01145 34.9934,-4.42308 0.7447,-0.14213 1.1403,-0.74388 1.4055,-1.51802 1.6263,-4.70142 3.6948,-9.58224 3.851,-13.687915 0.1961,-1.929572 0.1845,-4.56096 0.1414,-6.065829 -0.043,-1.50485 -0.4075,-3.25823 -0.4488,-3.447186 -0.9263,-4.032097 -7.9247,-14.560928 -10.5798,-18.850633 -1.2579,-1.611888 -2.8464,-3.140175 -4.9249,-4.080756 z"
           style="fill:#ffffff;fill-opacity:1;stroke:none;stroke-width:0.99793595px;stroke-linecap:butt;stroke-linejoin:miter;stroke-opacity:1" />
        <g
           style="fill:#000000"
           id="g5749"
           transform="translate(12.876746,30.854063)">
          <path
             style="fill:#000000;stroke:none;stroke-width:0.96407646px;stroke-linecap:butt;stroke-linejoin:miter;stroke-opacity:1"
             d="m -1363.0539,36.706588 c 1.7668,-0.36805 15.6795,-0.33458 21.9184,1.112894 3.2666,0.757884 5.6251,2.726297 7.4014,4.807448 2.852,4.122967 10.3351,14.265256 11.4434,18.07049 1.1082,3.805225 0.6744,4.134093 -1.5004,4.689628 -2.1748,0.55553 -20.2478,0.865669 -23.4092,0.119656 -3.1614,-0.746025 -6.0989,-0.295475 -8.0805,-4.531775 -2.7656,-4.036013 -9.1053,-17.73141 -9.2762,-20.123113 -0.1709,-2.391702 -0.2637,-3.777178 1.5031,-4.145228 z"
             id="path5743"
             inkscape:connector-curvature="0"
             sodipodi:nodetypes="zsccccczz" />
          <path
             style="fill:#000000;stroke:none;stroke-width:0.96407646px;stroke-linecap:butt;stroke-linejoin:miter;stroke-opacity:1"
             d="m -1351.8982,68.437504 c 9.7517,1.760326 19.2905,1.56156 28.7198,0.353648 0.8908,-0.03297 1.1645,0.461648 1.6209,0.800127 0.027,3.825538 -1.8268,8.288811 -3.2462,12.604739 -0.231,0.710787 -0.6007,1.254814 -1.3405,1.354207 -12.1312,2.636679 -23.397,2.249232 -34.8641,2.564955 -0.3974,-0.229825 -0.7598,-0.479932 -0.6595,-0.997522 5.0139,-11.625145 6.7999,-14.477008 8.1175,-16.05578 0.3583,-0.461984 0.8567,-0.739109 1.6521,-0.624374 z"
             id="path5745"
             inkscape:connector-curvature="0"
             sodipodi:nodetypes="ccccccccc" />
          <path
             style="fill:#000000;stroke:none;stroke-width:0.96407646px;stroke-linecap:butt;stroke-linejoin:miter;stroke-opacity:1"
             d="m -1367.708,42.147291 c 2.7648,9.303904 6.2062,16.076031 9.5907,23.061347 0.2514,0.536473 -0.1032,0.805852 -0.239,1.171704 l -7.9555,14.603736 c -0.4868,0.902874 -0.7452,0.714928 -0.9513,0.277071 l -9.1452,-26.438984 c -0.1723,-0.500601 0.094,-0.906081 0.3744,-1.308504 2.381,-3.924057 4.7362,-7.924353 7.4022,-11.007775 0.4549,-0.581303 0.7593,-0.689818 0.9237,-0.358595 z"
             id="path5747"
             inkscape:connector-curvature="0"
             sodipodi:nodetypes="ccccccccc" />
        </g>
        <path
           inkscape:connector-curvature="0"
           id="path5777"
           style="font-style:normal;font-variant:normal;font-weight:bold;font-stretch:normal;font-size:54.99999237px;line-height:0%;font-family:Arial;-inkscape-font-specification:'Arial Bold';text-align:center;text-anchor:middle;opacity:1;fill:#ffffff;fill-opacity:1;stroke:none;stroke-width:0.52167499;stroke-linecap:butt;stroke-linejoin:miter;stroke-miterlimit:4;stroke-dasharray:none;stroke-dashoffset:0;stroke-opacity:1"
           d="m -1316.6945,89.655436 -5.0918,-0.138332 -3.7962,-4.236578 -9.2662,-0.251754 -0.1416,4.129657 -4.9648,-0.134848 1.2265,-18.163838 4.9497,0.134477 z m -11.7045,-7.517357 -6.0896,-6.918016 -0.2354,6.746181 z" />
        <path
           d="m -1289.5029,88.504391 -5.7017,-13.39068 -5.348,0.496173 -1.5151,-4.243501 13.9258,-0.230988 1.9127,3.14565 -5.336,0.495023 5.7018,13.390675 z"
           style="font-style:normal;font-variant:normal;font-weight:bold;font-stretch:normal;font-size:54.99999237px;line-height:0%;font-family:Arial;-inkscape-font-specification:'Arial Bold';text-align:center;text-anchor:middle;opacity:1;fill:#ffffff;fill-opacity:1;stroke:none;stroke-width:0.44139087;stroke-linecap:butt;stroke-linejoin:miter;stroke-miterlimit:4;stroke-dasharray:none;stroke-dashoffset:0;stroke-opacity:1"
           id="path182105-2"
           inkscape:connector-curvature="0"
           sodipodi:nodetypes="ccccccccc" />
      </g>
      <path
         style="opacity:1;fill:#000000;fill-opacity:1;stroke:none;stroke-width:3.71839261;stroke-linecap:round;stroke-linejoin:round;stroke-miterlimit:4;stroke-dasharray:none;stroke-dashoffset:0;stroke-opacity:1"
         d="m -545.39005,1720.4334 a 303.80574,303.80574 0 0 0 303.80517,303.8052 303.80574,303.80574 0 0 0 303.806806,-303.8052 303.80574,303.80574 0 0 0 -303.806806,-303.8068 303.80574,303.80574 0 0 0 -303.80517,303.8068 z m 69.65026,0 a 234.15599,234.15599 0 0 1 234.15491,-234.1565 234.15599,234.15599 0 0 1 234.1565526,234.1565 234.15599,234.15599 0 0 1 -234.1565526,234.1549 234.15599,234.15599 0 0 1 -234.15491,-234.1549 z"
         id="path2225"
         inkscape:connector-curvature="0" />
      <g
         style="font-style:normal;font-variant:normal;font-weight:bold;font-stretch:normal;font-size:54.99999237px;line-height:0%;font-family:Arial;-inkscape-font-specification:'Arial Bold';text-align:center;text-anchor:middle;opacity:1;fill:#ffffff;fill-opacity:1;stroke:none;stroke-width:1;stroke-linecap:butt;stroke-linejoin:miter;stroke-miterlimit:4;stroke-dasharray:none;stroke-dashoffset:0;stroke-opacity:1"
         id="text182091"
         transform="matrix(0,-0.87307861,0.87307861,0,-575.90625,2035.566)">
        <path
           d="m 212.74912,137.80807 -7.07155,4.97712 -7.95819,-5.33465 -12.86936,9.05772 2.48982,9.18342 -6.89587,4.85346 -10.11984,-41.02122 6.8739,-4.83801 z m -20.93392,-4.31358 -12.84473,-8.82469 4.06019,15.00743 z"
           style="font-size:54.99999237px;line-height:0%;fill:#ffffff;fill-opacity:1"
           id="path182101"
           inkscape:connector-curvature="0" />
        <path
           d="m 216.62795,135.76326 -17.9798,-35.02474 6.88071,-3.532181 26.34179,16.030921 -12.00697,-23.38964 6.57012,-3.372747 17.97981,35.024737 -7.09574,3.64257 -25.84469,-15.59181 11.72489,22.84015 z"
           style="font-size:54.99999237px;line-height:0%;fill:#ffffff;fill-opacity:1"
           id="path182103"
           inkscape:connector-curvature="0" />
        <path
           d="m 260.58675,115.28569 -11.06145,-30.782883 -10.99389,3.950517 -2.25224,-6.267778 29.44339,-10.58012 2.25225,6.267778 -10.96861,3.941435 11.06144,30.782881 z"
           style="font-size:54.99999237px;line-height:0%;fill:#ffffff;fill-opacity:1"
           id="path182105"
           inkscape:connector-curvature="0" />
        <path
           d="m 283.88963,107.67662 -10.07797,-38.058379 7.68436,-2.034842 10.07797,38.058381 z"
           style="font-size:54.99999237px;line-height:0%;fill:#ffffff;fill-opacity:1"
           id="path182107"
           inkscape:connector-curvature="0" />
        <path
           d="m 295.93831,93.784183 -1.49763,-7.396286 14.52936,-2.941957 1.49762,7.396286 z"
           style="font-size:54.99999237px;line-height:0%;fill:#ffffff;fill-opacity:1"
           id="path182109"
           inkscape:connector-curvature="0" />
        <path
           d="m 317.00188,100.32131 -4.47823,-39.114586 26.81457,-3.070003 0.75757,6.616929 -18.91694,2.165803 1.05999,9.258365 16.32887,-1.869494 0.75757,6.616929 -16.32887,1.869494 1.9031,16.622367 z"
           style="font-size:54.99999237px;line-height:0%;fill:#ffffff;fill-opacity:1"
           id="path182111"
           inkscape:connector-curvature="0" />
        <path
           d="m 382.92195,97.365507 -8.64713,-0.07553 -3.35926,-8.972551 -15.7367,-0.137449 -3.3275,8.914147 -8.43229,-0.07365 15.67774,-39.234679 8.40544,0.07341 15.4197,39.506294 z m -14.49963,-15.703408 -5.297,-14.656196 -5.44477,14.562374 10.74177,0.09382 z"
           style="font-size:54.99999237px;line-height:0%;fill:#ffffff;fill-opacity:1"
           id="path182113"
           inkscape:connector-curvature="0" />
        <path
           d="m 386.99016,85.071549 7.76301,0.348662 q 0.14091,3.953638 1.98311,6.061315 1.86879,2.111472 5.45789,2.623847 3.80178,0.542738 5.94369,-0.77915 2.17229,-1.344679 2.47972,-3.498139 0.19736,-1.382468 -0.49017,-2.457217 -0.65715,-1.09754 -2.57521,-2.103808 -1.31415,-0.675906 -6.05796,-2.601003 -6.10352,-2.471867 -8.32937,-5.122612 -3.12986,-3.729272 -2.46946,-8.355222 0.42508,-2.977623 2.46814,-5.317349 2.07345,-2.362516 5.43074,-3.266749 3.38387,-0.900437 7.87689,-0.259019 7.33772,1.047522 10.57392,4.791975 3.26279,3.748249 2.68223,9.145172 l -7.91878,-0.777813 q -0.0763,-3.076321 -1.56519,-4.618139 -1.45856,-1.564609 -4.7818,-2.039031 -3.42958,-0.489603 -5.57151,0.642389 -1.37858,0.725539 -1.59492,2.240936 -0.19736,1.382468 0.83199,2.533143 1.31043,1.462079 6.85943,3.637762 5.54899,2.175682 8.0786,4.028831 2.55998,1.830358 3.74141,4.576152 1.2118,2.723004 0.68424,6.418446 -0.47821,3.349826 -2.75672,6.008602 -2.2785,2.658775 -5.88645,3.60861 -3.60415,0.92324 -8.68207,0.19833 -7.39088,-1.055116 -10.86638,-5.023625 -3.47169,-3.995094 -3.30902,-10.645296 z"
           style="font-size:54.99999237px;line-height:0%;fill:#ffffff;fill-opacity:1"
           id="path182115"
           inkscape:connector-curvature="0" />
        <path
           d="m 451.68224,96.570404 6.75496,4.443946 q -3.45519,5.72235 -8.28847,7.62406 -4.80014,1.88316 -10.90015,0.16305 -7.54746,-2.12827 -10.95636,-8.64217 -3.40161,-6.539751 -0.87976,-15.482981 2.66762,-9.46018 9.02509,-13.303829 6.36476,-3.869497 14.32579,-1.624612 6.95297,1.96063 10.13646,7.294862 1.89962,3.158523 1.90921,8.072109 l -8.08352,-0.326231 q 0.15887,-3.136117 -1.50543,-5.447004 -1.63844,-2.303598 -4.68845,-3.163651 -4.21314,-1.18804 -7.70235,1.09268 -3.46336,2.288009 -5.37297,9.06005 -2.02622,7.185601 -0.30153,10.964463 1.7247,3.778864 5.86029,4.945034 3.05001,0.86006 5.79369,-0.45898 2.74368,-1.31903 4.8735,-5.210796 z"
           style="font-size:54.99999237px;line-height:0%;fill:#ffffff;fill-opacity:1"
           id="path182117"
           inkscape:connector-curvature="0" />
        <path
           d="m 461.14742,115.25982 14.26653,-36.694304 7.40895,2.880555 -14.26653,36.694299 z"
           style="font-size:54.99999237px;line-height:0%;fill:#ffffff;fill-opacity:1"
           id="path182119"
           inkscape:connector-curvature="0" />
        <path
           d="m 479.56586,108.40245 7.25836,2.77526 q -1.11114,3.7969 -0.0263,6.37742 1.10889,2.5925 4.3541,4.20891 3.43752,1.7122 5.8867,1.13197 2.4852,-0.5923 3.45504,-2.53942 0.62262,-1.25001 0.30847,-2.48657 -0.27814,-1.24863 -1.78179,-2.80765 -1.03449,-1.05532 -4.93085,-4.37617 -5.01475,-4.26795 -6.29274,-7.48471 -1.79643,-4.525083 0.28694,-8.707797 1.34102,-2.692321 4.01688,-4.269739 2.71186,-1.589483 6.18309,-1.390616 3.49528,0.210841 7.5578,2.234347 6.63465,3.304661 8.52723,7.877633 1.91662,4.584942 -0.33374,9.524552 l -7.27108,-3.23163 q 0.89627,-2.94385 -0.0315,-4.87607 -0.89172,-1.944276 -3.89654,-3.440952 -3.10098,-1.544569 -5.49039,-1.144583 -1.53691,0.254562 -2.21939,1.624761 -0.62262,1.250006 -0.008,2.666264 0.78342,1.80032 5.36511,5.61255 4.58169,3.81222 6.39912,6.3676 1.85345,2.54332 2.11022,5.52145 0.29277,2.96605 -1.37153,6.30742 -1.50865,3.02886 -4.50843,4.83496 -2.99977,1.80611 -6.72328,1.5716 -3.71152,-0.25855 -8.30289,-2.54547 -6.68273,-3.32861 -8.73188,-8.18959 -2.03718,-4.88501 0.21116,-11.14573 z"
           style="font-size:54.99999237px;line-height:0%;fill:#ffffff;fill-opacity:1"
           id="path182121"
           inkscape:connector-curvature="0" />
        <path
           d="m 515.66899,142.5823 18.092,-27.25107 -9.73252,-6.46143 3.68376,-5.54866 26.06526,17.30475 -3.68375,5.54866 -9.71015,-6.44658 -18.09201,27.25107 z"
           style="font-size:54.99999237px;line-height:0%;fill:#ffffff;fill-opacity:1"
           id="path182123"
           inkscape:connector-curvature="0" />
        <path
           d="m 572.10342,189.41354 -6.25876,-5.96711 3.68299,-8.8446 -11.39017,-10.85939 -8.52286,4.23027 -6.10327,-5.81886 38.26565,-17.91345 6.08384,5.80033 z m 0.15496,-21.37317 6.15477,-14.31716 -13.92964,6.9046 z"
           style="font-size:54.99999237px;line-height:0%;fill:#ffffff;fill-opacity:1"
           id="path182125"
           inkscape:connector-curvature="0" />
        <path
           d="m 601.80705,203.4795 2.88337,7.5541 q -6.14827,2.62345 -11.18149,1.34139 -4.9955,-1.27776 -8.93955,-6.23894 -4.87993,-6.13841 -3.83843,-13.41624 1.06251,-7.29454 8.33611,-13.07692 7.69403,-6.11663 15.09905,-5.51932 7.42604,0.5806 12.57336,7.05535 4.49555,5.65491 3.96069,11.84382 -0.30486,3.67313 -3.16911,7.66555 l -6.36818,-4.98958 q 1.96199,-2.45175 1.96233,-5.29957 0.0171,-2.8268 -1.95497,-5.30739 -2.72407,-3.42657 -6.88827,-3.6155 -4.14748,-0.1679 -9.65523,4.21066 -5.84411,4.64596 -6.65349,8.72019 -0.80938,4.07422 1.86456,7.43773 1.97202,2.48059 4.96919,3.01405 2.99718,0.53345 7.00006,-1.37938 z"
           style="font-size:54.99999237px;line-height:0%;fill:#ffffff;fill-opacity:1"
           id="path182127"
           inkscape:connector-curvature="0" />
        <path
           d="m 603.52016,231.81219 27.97941,-16.94384 -6.05137,-9.99265 5.69695,-3.44998 16.20655,26.76192 -5.69696,3.44998 -6.03746,-9.96968 -27.97941,16.94384 z"
           style="font-size:54.99999237px;line-height:0%;fill:#ffffff;fill-opacity:1"
           id="path182129"
           inkscape:connector-curvature="0" />
        <path
           d="m 615.60165,253.14219 35.3004,-17.43235 3.51977,7.1275 -35.30041,17.43235 z"
           style="font-size:54.99999237px;line-height:0%;fill:#ffffff;fill-opacity:1"
           id="path182131"
           inkscape:connector-curvature="0" />
        <path
           d="m 640.40638,258.65032 q 5.63793,-2.09797 10.09119,-1.83525 3.28726,0.20948 6.3328,1.54047 3.05491,1.35616 5.10188,3.54587 2.74296,2.90497 4.41946,7.41028 3.03457,8.15487 -0.20747,14.92027 -3.23268,6.79057 -12.2433,10.14358 -8.93511,3.32491 -15.80177,0.34979 -6.84149,-2.98449 -9.86669,-11.11419 -3.06267,-8.23037 0.1384,-14.95187 3.22624,-6.73087 12.0355,-10.00895 z m 3.10831,7.58298 q -6.26716,2.33212 -8.43692,6.4348 -2.14459,4.09332 -0.48682,8.54829 1.65777,4.45497 5.91263,6.10963 4.28939,1.67046 10.70757,-0.71785 6.34267,-2.36022 8.42405,-6.31539 2.09074,-3.93001 0.37677,-8.536 -1.71397,-4.60598 -5.93429,-6.24484 -4.19515,-1.64822 -10.56299,0.72136 z"
           style="font-size:54.99999237px;line-height:0%;fill:#ffffff;fill-opacity:1"
           id="path182133"
           inkscape:connector-curvature="0" />
        <path
           d="m 637.06133,307.4555 38.49828,-8.23943 1.61866,7.5631 -22.33708,21.25878 25.70928,-5.50232 1.5456,7.22171 -38.49828,8.23943 -1.66924,-7.79945 21.78366,-20.89316 -25.10529,5.37305 z"
           style="font-size:54.99999237px;line-height:0%;fill:#ffffff;fill-opacity:1"
           id="path182135"
           inkscape:connector-curvature="0" />
        <path
           d="m 667.35996,363.10062 2.93421,-4.20803 q 2.26977,1.82176 4.35989,3.81391 0.84651,0.79096 1.07188,0.99473 0.0735,-0.67594 0.69201,-3.88004 0.44847,-2.30818 0.68022,-3.04587 l 4.80026,1.34481 q -1.24464,3.58518 -2.82213,6.43422 4.33949,-0.86383 7.10211,-1.00291 l 0.24036,4.77422 q -1.95797,0.0986 -7.22462,-0.36228 0.24158,0.52563 1.16217,2.25398 1.22122,2.35857 2.10167,4.35785 l -4.78312,1.66595 q -0.82043,-2.94343 -1.6613,-6.82695 l -3.45886,3.40087 q -1.05107,1.02094 -1.72007,1.6193 l -2.91558,-3.9673 5.7989,-3.92203 q -2.9791,-1.49027 -6.358,-3.44443 z"
           style="font-size:54.99999237px;line-height:0%;fill:#ffffff;fill-opacity:1"
           id="path182137"
           inkscape:connector-curvature="0" />
        <path
           d="m 659.57542,397.67123 -0.0562,7.77064 q -3.94553,0.28962 -5.98237,2.20985 -2.03964,1.94694 -2.41656,5.55278 -0.39925,3.81952 1.00232,5.91015 1.42549,2.12014 3.589,2.34629 1.38891,0.14519 2.43702,-0.58231 1.07203,-0.69799 2.00539,-2.65257 0.62596,-1.33866 2.37114,-6.15156 2.24038,-6.19224 4.80546,-8.51628 3.60883,-3.26802 8.25635,-2.78221 2.99152,0.3127 5.40649,2.26625 2.43888,1.98305 3.46884,5.30393 1.02717,3.34758 0.55532,7.86156 -0.77058,7.37194 -4.39057,10.74679 -3.62278,3.40157 -9.03774,3.02455 l 0.4792,-7.94243 q 3.07127,-0.192 4.55596,-1.73792 1.5086,-1.51641 1.8576,-4.85516 0.36016,-3.44558 -0.85165,-5.54338 -0.77691,-1.35029 -2.29938,-1.50944 -1.38892,-0.14518 -2.50003,0.92675 -1.41172,1.36454 -3.377,6.99149 -1.96527,5.62696 -3.7219,8.22452 -1.7327,2.62707 -4.43208,3.911 -2.67546,1.31344 -6.38814,0.92536 -3.36545,-0.35179 -6.10811,-2.52861 -2.74265,-2.17681 -3.82761,-5.74645 -1.05826,-3.56685 -0.52499,-8.66845 0.77618,-7.42536 4.61106,-11.04777 3.86158,-3.61961 10.5132,-3.70737 z"
           style="font-size:54.99999237px;line-height:0%;fill:#ffffff;fill-opacity:1"
           id="path182139"
           inkscape:connector-curvature="0" />
        <path
           d="m 642.57526,434.80411 38.16773,9.65557 -2.91775,11.53363 -27.78725,0.33905 24.30308,13.43362 -2.92433,11.55966 -38.16773,-9.65556 1.81124,-7.15971 30.04472,7.60063 -28.1281,-15.1769 1.87711,-7.42005 31.95476,0.0504 -30.04473,-7.60063 1.81125,-7.1597 z"
           style="font-size:54.99999237px;line-height:0%;fill:#ffffff;fill-opacity:1"
           id="path182141"
           inkscape:connector-curvature="0" />
        <path
           d="m 616.78792,511.82632 3.34599,-7.97389 9.57637,0.29055 6.08929,-14.51149 -6.98894,-6.45669 3.26286,-7.77578 30.37006,29.37364 -3.25247,7.75102 z m 20.02615,-7.46924 15.57045,0.6506 -11.41394,-10.55605 z"
           style="font-size:54.99999237px;line-height:0%;fill:#ffffff;fill-opacity:1"
           id="path182143"
           inkscape:connector-curvature="0" />
        <path
           d="m 626.61393,520.26572 -3.27406,7.04745 q -3.7103,-1.3729 -6.36011,-0.47041 -2.66344,0.92564 -4.50195,4.05038 -1.94746,3.30992 -1.53922,5.79357 0.41776,2.52041 2.29261,3.62352 1.20361,0.70816 2.45905,0.4809 1.26497,-0.1905 2.92493,-1.58191 1.1248,-0.95847 4.70897,-4.61408 4.60686,-4.70531 7.90482,-5.75615 4.63921,-1.4769 8.66666,0.89274 2.59238,1.52528 3.9796,4.3045 1.39674,2.81598 0.95659,6.26494 -0.45377,3.4721 -2.75532,7.38382 -3.75873,6.38837 -8.45241,7.95785 -4.70731,1.59263 -9.47818,-0.99631 l 3.7302,-7.02834 q 2.87428,1.09913 4.86642,0.30822 2.00167,-0.75413 3.70399,-3.64742 1.7568,-2.98587 1.52421,-5.39733 -0.1469,-1.55091 -1.46624,-2.32717 -1.2036,-0.70816 -2.65923,-0.19362 -1.85052,0.65612 -5.9726,4.96116 -4.12207,4.30505 -6.79784,5.94009 -2.66623,1.67181 -5.655,1.72053 -2.97925,0.0855 -6.19658,-1.80751 -2.91643,-1.71594 -4.50922,-4.83423 -1.59278,-3.11828 -1.0995,-6.81641 0.51643,-3.68451 3.11758,-8.10544 3.78597,-6.43467 8.77787,-8.14028 5.01504,-1.69199 11.10396,0.98694 z"
           style="font-size:54.99999237px;line-height:0%;fill:#ffffff;fill-opacity:1"
           id="path182145"
           inkscape:connector-curvature="0" />
        <path
           d="m 595.50776,546.98941 30.94584,24.33846 -4.91418,6.24827 -12.17991,-9.57932 -9.62913,12.24324 12.17991,9.57932 -4.91417,6.24828 -30.94585,-24.33846 4.91418,-6.24827 13.53089,10.64185 9.62913,-12.24324 -13.53089,-10.64185 z"
           style="font-size:54.99999237px;line-height:0%;fill:#ffffff;fill-opacity:1"
           id="path182147"
           inkscape:connector-curvature="0" />
        <path
           d="m 559.6695,588.56171 26.20333,29.38352 -20.14354,17.9634 -4.43276,-4.97074 14.21072,-12.67269 -6.20229,-6.95504 -12.26652,10.93891 -4.43276,-4.97075 12.26652,-10.9389 -11.13552,-12.487 z"
           style="font-size:54.99999237px;line-height:0%;fill:#ffffff;fill-opacity:1"
           id="path182149"
           inkscape:connector-curvature="0" />
        <path
           d="m 507.53337,629.0124 7.10388,-4.93086 7.92321,5.38647 12.92819,-8.97356 -2.42983,-9.19946 6.92739,-4.80836 9.85194,41.08639 -6.90533,4.79304 z m 20.90533,4.4501 12.78687,8.90832 -3.96217,-15.03361 z"
           style="font-size:54.99999237px;line-height:0%;fill:#ffffff;fill-opacity:1"
           id="path182151"
           inkscape:connector-curvature="0" />
        <path
           d="m 511.30439,641.40984 -6.54284,4.19251 q -2.39538,-3.14853 -5.11592,-3.80783 -2.74444,-0.64707 -5.97196,1.00438 -3.41877,1.74933 -4.40613,4.06455 -0.99904,2.35137 -0.008,4.28788 0.63612,1.24319 1.81764,1.72464 1.16985,0.51759 3.31711,0.23338 1.46339,-0.20578 6.449,-1.36914 6.41173,-1.50091 9.75889,-0.61924 4.70771,1.24136 6.83626,5.40127 1.37009,2.67764 1.05052,5.76735 -0.33124,3.12585 -2.55236,5.80086 -2.24501,2.68724 -6.28538,4.75462 -6.59848,3.37631 -11.40182,2.18389 -4.82725,-1.18019 -7.46567,-5.92388 l 6.9176,-3.93176 q 1.83657,2.46912 3.94216,2.86991 2.09392,0.43693 5.08236,-1.0922 3.08407,-1.57806 4.18097,-3.73817 0.70773,-1.3878 0.0104,-2.75053 -0.63612,-1.24319 -2.14067,-1.58952 -1.91377,-0.4386 -7.70168,0.98444 -5.78791,1.42305 -8.9232,1.36814 -3.14696,-0.0188 -5.69573,-1.58048 -2.56045,-1.52556 -4.26084,-4.8487 -1.54136,-3.01235 -1.21346,-6.49849 0.32789,-3.48613 2.72747,-6.34297 2.41182,-2.83292 6.97815,-5.16942 6.64629,-3.40078 11.77434,-2.16334 5.14028,1.26135 8.84291,6.78785 z"
           style="font-size:54.99999237px;line-height:0%;fill:#ffffff;fill-opacity:1"
           id="path182153"
           inkscape:connector-curvature="0" />
        <path
           d="m 451.78678,669.29272 -8.08172,0.25301 q -0.46738,-6.66822 2.39096,-11.00493 2.84192,-4.30245 8.82049,-6.40615 7.39721,-2.60288 13.93368,0.76255 6.54538,3.39076 9.62962,12.15595 3.26251,9.27186 0.2752,16.07385 -2.97839,6.82732 -10.78093,9.57282 -6.81456,2.39786 -12.48781,-0.13253 -3.3712,-1.4899 -6.20671,-5.5028 l 6.79857,-4.38509 q 1.67485,2.65619 4.36581,3.5883 2.66562,0.94103 5.6549,-0.11082 4.12927,-1.45298 5.6703,-5.32615 1.51569,-3.86427 -0.81977,-10.50149 -2.47808,-7.04256 -6.06322,-9.14045 -3.58514,-2.09788 -7.63841,-0.67165 -2.98929,1.05185 -4.47404,3.7095 -1.48475,2.65766 -0.98692,7.06608 z"
           style="font-size:54.99999237px;line-height:0%;fill:#ffffff;fill-opacity:1"
           id="path182155"
           inkscape:connector-curvature="0" />
        <path
           d="m 433.28785,659.44636 9.42214,38.22603 -7.71822,1.90242 -9.42214,-38.22602 z"
           style="font-size:54.99999237px;line-height:0%;fill:#ffffff;fill-opacity:1"
           id="path182157"
           inkscape:connector-curvature="0" />
        <path
           d="m 422.16055,675.64296 -7.53427,1.90282 q -1.27406,-3.74538 -3.64541,-5.2329 -2.39791,-1.48349 -5.98243,-0.94004 -3.79694,0.57566 -5.46715,2.45862 -1.69274,1.91354 -1.36667,4.06426 0.20933,1.38071 1.17736,2.21179 0.94551,0.86165 3.07215,1.27262 1.45317,0.2686 6.55047,0.74527 6.5569,0.60848 9.45209,2.5055 4.07162,2.66935 4.77207,7.2894 0.45086,2.97383 -0.83143,5.80299 -1.30483,2.85974 -4.25922,4.69293 -2.98094,1.83722 -7.46823,2.51755 -7.32837,1.11105 -11.50619,-1.54219 -4.20438,-2.64922 -5.20341,-7.98455 l 7.80707,-1.53674 q 0.95938,2.92389 2.82941,3.97133 1.8475,1.07802 5.16651,0.57482 3.42521,-0.5193 5.15015,-2.22042 1.11108,-1.09197 0.88162,-2.60544 -0.20933,-1.38071 -1.52656,-2.18601 -1.67612,-1.02251 -7.61666,-1.50714 -5.94055,-0.48463 -8.89681,-1.53036 -2.9788,-1.01515 -4.90124,-3.30411 -1.94498,-2.25839 -2.50453,-5.94912 -0.50722,-3.34556 0.90861,-6.54807 1.41583,-3.20252 4.59711,-5.1516 3.1853,-1.92253 8.25674,-2.69141 7.38147,-1.11911 11.853,1.67974 4.47555,2.8254 6.23585,9.24046 z"
           style="font-size:54.99999237px;line-height:0%;fill:#ffffff;fill-opacity:1"
           id="path182159"
           inkscape:connector-curvature="0" />
        <path
           d="m 381.94198,668.5371 0.25289,39.3693 -11.89672,0.0764 -7.31592,-26.80902 -6.89033,26.90028 -11.92358,0.0766 -0.2529,-39.3693 7.3851,-0.0474 0.19908,30.99057 7.6157,-31.04077 7.65365,-0.0492 7.987,30.94054 -0.19907,-30.99057 7.3851,-0.0474 z"
           style="font-size:54.99999237px;line-height:0%;fill:#ffffff;fill-opacity:1"
           id="path182161"
           inkscape:connector-curvature="0" />
        <path
           d="m 314.92979,686.48719 3.48903,3.76082 q -2.26218,1.83118 -4.65271,3.45063 -0.95267,0.65925 -1.19964,0.83622 0.64491,0.21537 3.64461,1.5001 2.16033,0.92836 2.83198,1.31147 l -2.33342,4.40524 q -3.23914,-1.97753 -5.68825,-4.12401 -0.0773,4.42397 -0.528,7.15311 l -4.7164,-0.77886 q 0.31943,-1.93425 1.88808,-6.98295 -0.56493,0.12446 -2.44935,0.65707 -2.5641,0.69255 -4.70473,1.1284 l -0.61233,-5.02779 q 3.05051,-0.17672 7.02403,-0.1738 l -2.58888,-4.10211 q -0.77448,-1.24389 -1.21714,-2.02469 l 4.49592,-2.00668 2.60127,6.49945 q 2.08887,-2.59471 4.71593,-5.48162 z"
           style="font-size:54.99999237px;line-height:0%;fill:#ffffff;fill-opacity:1"
           id="path182163"
           inkscape:connector-curvature="0" />
        <path
           d="m 253.10165,648.30529 8.21793,2.6915 0.4833,9.56858 14.95561,4.89821 5.87155,-7.48726 8.01376,2.62463 -26.82666,32.64172 -7.98823,-2.61627 z m 9.06117,19.35798 0.60821,15.57216 9.6004,-12.22868 z"
           style="font-size:54.99999237px;line-height:0%;fill:#ffffff;fill-opacity:1"
           id="path182165"
           inkscape:connector-curvature="0" />
        <path
           d="m 231.86862,681.78594 -14.13134,-6.92588 q -4.196,-2.05649 -6.06848,-3.42282 -1.90842,-1.35404 -2.98045,-3.25519 -1.09614,-1.91297 -1.27126,-4.30167 -0.18693,-2.36459 0.93586,-4.65551 1.21735,-2.48383 3.58421,-3.89586 2.34275,-1.42384 5.14188,-1.33799 -2.77046,-2.52421 -3.39576,-5.64198 -0.6253,-3.11776 0.8757,-6.18035 1.18189,-2.4115 3.43809,-4.14692 2.22027,-1.72314 4.84725,-2.14036 2.59105,-0.40492 5.59026,0.67622 1.87906,0.68168 8.72722,3.9782 l 12.03334,5.89763 z m -4.2542,-9.38244 4.00661,-8.17496 -4.67829,-2.29287 q -4.17189,-2.04467 -5.24381,-2.42049 -1.9391,-0.6812 -3.48426,-0.15247 -1.58108,0.54102 -2.42023,2.25318 -0.80368,1.63982 -0.38371,3.10176 0.38404,1.47424 2.06217,2.56588 1.00197,0.6406 6.04198,3.11076 z m 6.89042,-14.059 4.63302,-9.45305 -6.60749,-3.23838 q -3.85839,-1.89102 -5.0017,-2.1822 -1.73341,-0.49067 -3.2658,0.13404 -1.56831,0.63701 -2.49019,2.51797 -0.78004,1.59159 -0.55204,3.07908 0.22801,1.48749 1.45083,2.71485 1.19869,1.21555 6.06991,3.60297 z"
           style="font-size:54.99999237px;line-height:0%;fill:#ffffff;fill-opacity:1"
           id="path182167"
           inkscape:connector-curvature="0" />
        <path
           d="m 204.12956,645.51188 q -3.40188,4.96134 -7.19428,7.31044 -2.80838,1.72132 -6.06482,2.38648 -3.2786,0.64998 -6.21297,0.0381 -3.91523,-0.79598 -7.87988,-3.51445 -7.17622,-4.92059 -8.42051,-12.31878 -1.26644,-7.41338 4.1705,-15.34267 5.39138,-7.86284 12.71869,-9.38367 7.31213,-1.49868 14.46621,3.40672 7.24267,4.96615 8.49518,12.30486 1.23733,7.36085 -4.07812,15.11295 z m -6.90726,-4.41054 q 3.78156,-5.51507 3.19356,-10.11877 -0.60318,-4.58156 -4.52352,-7.26965 -3.92035,-2.6881 -8.35192,-1.59133 -4.4689,1.10374 -8.34158,6.75169 -3.82712,5.58151 -3.25179,10.01372 0.55319,4.41703 4.60642,7.19625 4.05324,2.77922 8.44747,1.68941 4.37905,-1.06767 8.22136,-6.67132 z"
           style="font-size:54.99999237px;line-height:0%;fill:#ffffff;fill-opacity:1"
           id="path182169"
           inkscape:connector-curvature="0" />
        <path
           d="m 178.76999,603.47752 -26.20316,28.95046 -5.89363,-5.33435 21.75187,-24.03246 -14.65443,-13.26377 4.45129,-4.91799 z"
           style="font-size:54.99999237px;line-height:0%;fill:#ffffff;fill-opacity:1"
           id="path182171"
           inkscape:connector-curvature="0" />
        <path
           d="m 154.67149,580.70153 -28.81061,26.83196 -5.41764,-5.81715 28.81061,-26.83196 z"
           style="font-size:54.99999237px;line-height:0%;fill:#ffffff;fill-opacity:1"
           id="path182173"
           inkscape:connector-curvature="0" />
        <path
           d="m 135.1235,578.87395 -5.33721,-5.64803 q 2.64759,-2.93962 2.78893,-5.73534 0.12488,-2.81693 -2.09853,-5.6806 -2.35516,-3.03338 -4.81372,-3.5725 -2.49624,-0.54385 -4.21444,0.79019 -1.10305,0.85642 -1.35614,2.10691 -0.29077,1.24575 0.38819,3.30258 0.4746,1.39949 2.54571,6.0814 2.66824,6.02026 2.42506,9.47304 -0.3433,4.85651 -4.03426,7.72223 -2.37579,1.8446 -5.47098,2.10577 -3.13288,0.25643 -6.1746,-1.4279 -3.05819,-1.70554 -5.84156,-5.29043 -4.545623,-5.85463 -4.2682,-10.79599 0.260952,-4.96256 4.43057,-8.43792 l 5.15078,6.06477 q -2.08408,2.26411 -2.0859,4.4075 -0.0395,2.13866 2.0192,4.79021 2.12459,2.7364 4.45113,3.41202 1.49529,0.43701 2.7044,-0.50176 1.10305,-0.85642 1.16324,-2.39914 0.0747,-1.96197 -2.40092,-7.38381 -2.47561,-5.42183 -3.0053,-8.51254 -0.56738,-3.09545 0.49256,-5.89039 1.02226,-2.79968 3.97079,-5.08896 2.67276,-2.07517 6.15901,-2.40197 3.48624,-0.32679 6.73982,1.49904 3.23238,1.8423 6.37808,5.89387 4.57856,5.89706 4.31735,11.16582 -0.28243,5.28524 -5.02306,9.95193 z"
           style="font-size:54.99999237px;line-height:0%;fill:#ffffff;fill-opacity:1"
           id="path182175"
           inkscape:connector-curvature="0" />
        <path
           d="m 121.78239,540.10163 -34.02104,19.81349 -4.000541,-6.86919 13.390275,-7.79835 -7.838896,-13.45989 -13.390275,7.79835 -4.00054,-6.86919 34.021047,-19.81349 4.00054,6.86919 -14.875507,8.66333 7.838897,13.4599 14.8755,-8.66333 z"
           style="font-size:54.99999237px;line-height:0%;fill:#ffffff;fill-opacity:1"
           id="path182177"
           inkscape:connector-curvature="0" />
        <path
           d="m 74.19829,472.5495 -0.218569,-8.08272 q 6.670155,-0.43896 10.994638,2.43783 4.290307,2.86023 6.368505,8.84771 2.571331,7.40824 -0.821921,13.93031 -3.418622,6.53087 -12.196879,9.57772 -9.285671,3.22297 -16.074869,0.20671 -6.81457,-3.00746 -9.526795,-10.82163 -2.368795,-6.82471 0.185748,-12.48713 1.504252,-3.36482 5.529196,-6.1832 l 4.356085,6.81719 q -2.663304,1.66352 -3.606877,4.35048 -0.95238,2.66158 0.08672,5.65532 1.435366,4.13543 5.301941,5.69294 3.857769,1.53215 10.504888,-0.775 7.05305,-2.44805 9.166198,-6.02422 2.113148,-3.57617 0.7042,-7.63548 -1.039099,-2.99374 -3.690405,-4.4898 -2.651305,-1.49607 -7.061804,-1.01703 z"
           style="font-size:54.99999237px;line-height:0%;fill:#ffffff;fill-opacity:1"
           id="path182179"
           inkscape:connector-curvature="0" />
        <path
           d="m 76.797573,419.11179 1.670794,8.48451 -8.110193,5.1006 3.040638,15.44077 9.402205,1.46041 1.629283,8.27372 -41.591066,-7.43874 -1.624095,-8.24737 z m -12.454771,17.36994 -13.285951,8.14529 15.361471,2.39448 z"
           style="font-size:54.99999237px;line-height:0%;fill:#ffffff;fill-opacity:1"
           id="path182181"
           inkscape:connector-curvature="0" />
        <path
           d="m 76.604492,414.81067 -39.297787,2.38529 -0.77286,-12.73292 q -0.43931,-7.23765 0.017,-9.47155 0.679591,-3.43127 3.51677,-5.89039 2.810373,-2.4575 7.501446,-2.74224 3.618827,-0.21965 6.164718,0.94416 2.545891,1.16381 4.090273,3.11484 1.51595,1.92585 2.098566,3.98907 0.735398,2.80728 1.06244,8.19531 l 0.314025,5.17358 14.82379,-0.89977 0.481614,7.93462 z m -33.131481,-5.95284 11.151351,-0.67687 -0.263586,-4.34259 q -0.284738,-4.69107 -0.997277,-6.23521 -0.712538,-1.54414 -2.079732,-2.34902 -1.368821,-0.83168 -3.111219,-0.72592 -2.144491,0.13017 -3.461937,1.47466 -1.317446,1.3445 -1.548777,3.29569 -0.181826,1.437 0.07851,5.72598 l 0.232671,3.83328 z"
           style="font-size:54.99999237px;line-height:0%;fill:#ffffff;fill-opacity:1"
           id="path182183"
           inkscape:connector-curvature="0" />
        <path
           d="m 75.220776,378.35066 -39.352427,-1.17993 0.238239,-7.94564 39.352426,1.17992 z"
           style="font-size:54.99999237px;line-height:0%;fill:#ffffff;fill-opacity:1"
           id="path182185"
           inkscape:connector-curvature="0" />
        <path
           d="m 76.673765,354.04224 -32.519763,-3.52226 -1.257948,11.6142 -6.621429,-0.71717 3.368986,-31.1047 6.621429,0.71718 -1.255056,11.5875 32.519763,3.52225 z"
           style="font-size:54.99999237px;line-height:0%;fill:#ffffff;fill-opacity:1"
           id="path182187"
           inkscape:connector-curvature="0" />
        <path
           d="m 87.120193,298.89129 -1.958668,8.42272 -9.489051,1.32258 -3.564533,15.3283 7.97443,5.19064 -1.910005,8.21346 -34.87362,-23.85335 1.903923,-8.1873 z m -18.486492,10.72781 -15.458415,1.97476 13.025287,8.48824 z"
           style="font-size:54.99999237px;line-height:0%;fill:#ffffff;fill-opacity:1"
           id="path182189"
           inkscape:connector-curvature="0" />
        <path
           d="m 88.846303,294.71249 -36.590967,-13.63214 2.775183,-7.44906 30.375032,11.31637 6.900455,-18.52197 6.215934,2.31577 z"
           style="font-size:54.99999237px;line-height:0%;fill:#ffffff;fill-opacity:1"
           id="path182191"
           inkscape:connector-curvature="0" />
        <path
           d="m 101.0895,263.89706 -35.580471,-16.85335 3.40286,-7.18406 35.580471,16.85336 z"
           style="font-size:54.99999237px;line-height:0%;fill:#ffffff;fill-opacity:1"
           id="path182193"
           inkscape:connector-curvature="0" />
        <path
           d="m 95.567643,245.03255 3.288749,-7.04061 q 3.707418,1.38063 6.359118,0.48367 2.66535,-0.92008 4.51038,-4.04099 1.95435,-3.30585 1.5513,-5.79034 -0.41251,-2.52128 -2.28506,-3.62829 -1.20212,-0.71068 -2.45804,-0.48603 -1.26536,0.18786 -2.92822,1.57581 -1.1268,0.95612 -4.71858,4.60425 -4.616658,4.69569 -7.916807,5.73966 -4.642279,1.46722 -8.66478,-0.91081 -2.589196,-1.53069 -3.970614,-4.31279 -1.390869,-2.81889 -0.943525,-6.26692 0.461011,-3.47115 2.770706,-7.37806 3.772046,-6.38052 8.468992,-7.94021 4.710614,-1.58281 9.476081,1.01607 l -3.744851,7.02054 q -2.871983,-1.10511 -4.865767,-0.31837 -2.003235,0.74997 -3.711589,3.6397 -1.763021,2.98219 -1.535456,5.39414 0.143665,1.55121 1.461381,2.33022 1.202127,0.71067 2.658827,0.19916 1.85188,-0.65226 5.982925,-4.9487 4.131045,-4.29644 6.810207,-5.9259 2.66971,-1.66624 5.65858,-1.70873 2.97942,-0.0793 6.1928,1.82042 2.91285,1.72203 4.49913,4.84362 1.58628,3.1216 1.08529,6.81869 -0.52411,3.68343 -3.13448,8.09893 -3.79938,6.42676 -8.79482,8.12196 -5.01855,1.68153 -11.101877,-1.01009 z"
           style="font-size:54.99999237px;line-height:0%;fill:#ffffff;fill-opacity:1"
           id="path182195"
           inkscape:connector-curvature="0" />
        <path
           d="m 126.49968,218.3619 -30.630737,-24.73386 7.474147,-9.25608 25.38195,11.31383 -16.45684,-22.36681 7.49102,-9.27697 30.63073,24.73386 -4.6397,5.74587 -24.11178,-19.4699 19.20212,25.55008 -4.80842,5.95482 -29.00456,-13.41062 24.11177,19.4699 z"
           style="font-size:54.99999237px;line-height:0%;fill:#ffffff;fill-opacity:1"
           id="path182197"
           inkscape:connector-curvature="0" />
        <path
           d="m 155.07049,155.14041 -5.1203,0.3157 q 0.0171,-2.91039 0.27922,-5.7859 0.0937,-1.15473 0.11336,-1.45793 -0.5753,0.3624 -3.47008,1.86871 -2.08718,1.08283 -2.80918,1.35962 l -1.92901,-4.59672 q 3.58244,-1.2525 6.79492,-1.78679 -3.37323,-2.86334 -5.19879,-4.94149 l 3.59136,-3.15486 q 1.29385,1.47286 4.20526,5.88577 0.26173,-0.51589 1.04392,-2.31113 1.08917,-2.42238 2.10857,-4.35451 l 4.27737,2.71253 q -1.79646,2.47176 -4.31681,5.54368 l 4.81387,0.59691 q 1.45302,0.18916 2.33755,0.34154 l -1.29684,4.74956 -6.67622,-2.10656 q 0.68343,3.26019 1.25183,7.12187 z"
           style="font-size:54.99999237px;line-height:0%;fill:#ffffff;fill-opacity:1"
           id="path182199"
           inkscape:connector-curvature="0" />
      </g>
      <circle
         style="opacity:1;fill:none;fill-opacity:1;stroke:none;stroke-width:0.85549539;stroke-linecap:butt;stroke-linejoin:miter;stroke-miterlimit:4;stroke-dasharray:none;stroke-dashoffset:0;stroke-opacity:1"
         id="path182095"
         cx="1273.0565"
         cy="-1182.1925"
         r="254.20435"
         transform="rotate(140.87381)" />
    </g>
  </g>
</svg>
